User Guide
…
We can use a name as index to extract an individual
source_spct object.

lamps.mspct$Generic.Inc.bulb.60W

## Object: source_spct [601 x 2]
## Wavelength range 300-900 nm, step 1 nm 
## Label: Incandescent lamp: Generic bulb 60W ca. 1995 
## Measured on 0-08-18 13:47:11 UTC 
## Spectral data normalized to s.e.irrad = 1 at 900 nm (max in 300-900 nm)
## Variables:
##  w.length: Wavelength [nm]
##  s.e.irrad: Spectral energy irradiance [normalized] 
## --
## # A tibble: 601 × 2
##    w.length s.e.irrad
##       <dbl>     <dbl>
##  1      300  0.000665
##  2      301  0.000325
##  3      302  0.000956
##  4      303  0.000702
##  5      304  0.000306
##  6      305  0.000825
##  7      306  0.00103 
##  8      307  0.000361
##  9      308  0.000497
## 10      309  0.000627
## # ℹ 591 more rows

Or a character string.

lamps.mspct[["Generic.Inc.bulb.60W"]]

## Object: source_spct [601 x 2]
## Wavelength range 300-900 nm, step 1 nm 
## Label: Incandescent lamp: Generic bulb 60W ca. 1995 
## Measured on 0-08-18 13:47:11 UTC 
## Spectral data normalized to s.e.irrad = 1 at 900 nm (max in 300-900 nm)
## Variables:
##  w.length: Wavelength [nm]
##  s.e.irrad: Spectral energy irradiance [normalized] 
## --
## # A tibble: 601 × 2
##    w.length s.e.irrad
##       <dbl>     <dbl>
##  1      300  0.000665
##  2      301  0.000325
##  3      302  0.000956
##  4      303  0.000702
##  5      304  0.000306
##  6      305  0.000825
##  7      306  0.00103 
##  8      307  0.000361
##  9      308  0.000497
## 10      309  0.000627
## # ℹ 591 more rows
…
lamps.mspct["Generic.Inc.bulb.60W"]

## Object: source_mspct [1 x 1]
## --- Member: Generic.Inc.bulb.60W ---
## Object: source_spct [601 x 2]
## Wavelength range 300-900 nm, step 1 nm 
## Label: Incandescent lamp: Generic bulb 60W ca. 1995 
## Measured on 0-08-18 13:47:11 UTC 
## Spectral data normalized to s.e.irrad = 1 at 900 nm (max in 300-900 nm)
## Variables:
##  w.length: Wavelength [nm]
##  s.e.irrad: Spectral energy irradiance [normalized] 
## --
## # A tibble: 601 × 2
##    w.length s.e.irrad
##       <dbl>     <dbl>
##  1      300  0.000665
##  2      301  0.000325
##  3      302  0.000956
##  4      303  0.000702
##  5      304  0.000306
##  6      305  0.000825
##  7      306  0.00103 
##  8      307  0.000361
##  9      308  0.000497
## 10      309  0.000627
## # ℹ 591 more rows
## 
## --- END ---
…
lamps.mspct[Toshiba_lamps]

## Object: source_mspct [2 x 1]
## --- Member: Toshiba.LED.12W.2700K ---
## Object: source_spct [591 x 2]
## Wavelength range 251.16-898.81 nm, step 1.023182e-12-7.56 nm 
## Label: LED lamp: Toshiba 12W 2700K 
## Measured on 2018-02-12 09:08:23.957523 UTC 
## Spectral data normalized to s.e.irrad = 1 at 607.26 nm (max in 251.16-898.81 nm)
## Variables:
##  w.length: Wavelength [nm]
##  s.e.irrad: Spectral energy irradiance [normalized] 
## --
## # A tibble: 591 × 2
##    w.length s.e.irrad
##       <dbl>     <dbl>
##  1     251.         0
##  2     256.         0
##  3     256.         0
##  4     257.         0
##  5     257.         0
##  6     258.         0
##  7     258.         0
##  8     259.         0
##  9     259.         0
## 10     260.         0
## # ℹ 581 more rows
## --- Member: Toshiba.LED.9.5W.2700K ---
## Object: source_spct [678 x 2]
## Wavelength range 251.29-898.97 nm, step 1.023182e-12-7.55 nm 
## Label: LED lamp: Toshiba 9.5W 2700K 
## Measured on 2021-09-02 19:48:00.171366 UTC 
## Spectral data normalized to s.e.irrad = 1 at 605.57 nm (max in 251.29-898.97 nm)
## Variables:
##  w.length: Wavelength [nm]
##  s.e.irrad: Spectral energy irradiance [normalized] 
## --
## # A tibble: 678 × 2
##    w.length s.e.irrad
##       <dbl>     <dbl>
##  1     251.         0
##  2     256.         0
##  3     257.         0
##  4     257.         0
##  5     257.         0
##  6     258.         0
##  7     258.         0
##  8     259.         0
##  9     259.         0
## 10     260.         0
## # ℹ 668 more rows
## 
## --- END ---
…
lamps.mspct[grep("Toshiba", names(lamps.mspct))]

## Object: source_mspct [2 x 1]
## --- Member: Toshiba.LED.12W.2700K ---
## Object: source_spct [591 x 2]
## Wavelength range 251.16-898.81 nm, step 1.023182e-12-7.56 nm 
## Label: LED lamp: Toshiba 12W 2700K 
## Measured on 2018-02-12 09:08:23.957523 UTC 
## Spectral data normalized to s.e.irrad = 1 at 607.26 nm (max in 251.16-898.81 nm)
## Variables:
##  w.length: Wavelength [nm]
##  s.e.irrad: Spectral energy irradiance [normalized] 
## --
## # A tibble: 591 × 2
##    w.length s.e.irrad
##       <dbl>     <dbl>
##  1     251.         0
##  2     256.         0
##  3     256.         0
##  4     257.         0
##  5     257.         0
##  6     258.         0
##  7     258.         0
##  8     259.         0
##  9     259.         0
## 10     260.         0
## # ℹ 581 more rows
## --- Member: Toshiba.LED.9.5W.2700K ---
## Object: source_spct [678 x 2]
## Wavelength range 251.29-898.97 nm, step 1.023182e-12-7.55 nm 
## Label: LED lamp: Toshiba 9.5W 2700K 
## Measured on 2021-09-02 19:48:00.171366 UTC 
## Spectral data normalized to s.e.irrad = 1 at 605.57 nm (max in 251.29-898.97 nm)
## Variables:
##  w.length: Wavelength [nm]
##  s.e.irrad: Spectral energy irradiance [normalized] 
## --
## # A tibble: 678 × 2
##    w.length s.e.irrad
##       <dbl>     <dbl>
##  1     251.         0
##  2     256.         0
##  3     257.         0
##  4     257.         0
##  5     257.         0
##  6     258.         0
##  7     258.         0
##  8     259.         0
##  9     259.         0
## 10     260.         0
## # ℹ 668 more rows
## 
## --- END ---
…
lamps.mspct[intersect(Philips_lamps, red_lamps)]

## Object: source_mspct [6 x 1]
## --- Member: Philips.CF.PLS.11W.927 ---
## Object: source_spct [301 x 2]
## Wavelength range 300-900 nm, step 2 nm 
## Label: Compact fluorescent lamp: Philips PLS 11W 927 ca. 1995 
## Measured on 0-10-18 08:51:11 UTC 
## Spectral data normalized to s.e.irrad = 1 at 612 nm (max in 300-900 nm)
## Variables:
##  w.length: Wavelength [nm]
##  s.e.irrad: Spectral energy irradiance [normalized] 
## --
## # A tibble: 301 × 2
##    w.length s.e.irrad
##       <dbl>     <dbl>
##  1      300  0.000135
##  2      302  0.000370
##  3      304  0.000351
##  4      306  0.000227
##  5      308  0.00240 
##  6      310  0.00804 
##  7      312  0.0151  
##  8      314  0.0171  
##  9      316  0.0115  
## 10      318  0.00536 
## # ℹ 291 more rows
## --- Member: Philips.FT.TL5.35W.830.HE ---
## Object: source_spct [1,094 x 2]
## Wavelength range 251.16-898.81 nm, step 0.43-4.92 nm 
## Label: Fluorescent tube: Philips FT TL5 35W 830 HE 
## Measured on 2018-02-12 09:57:35.344863 UTC 
## Spectral data normalized to s.e.irrad = 1 at 611.35 nm (max in 251.16-898.81 nm)
## Variables:
##  w.length: Wavelength [nm]
##  s.e.irrad: Spectral energy irradiance [normalized] 
## --
## # A tibble: 1,094 × 2
##    w.length s.e.irrad
##       <dbl>     <dbl>
##  1     251.         0
##  2     256.         0
##  3     256.         0
##  4     257.         0
##  5     257.         0
##  6     258.         0
##  7     258.         0
##  8     259.         0
##  9     259.         0
## 10     260.         0
## # ℹ 1,084 more rows
## --- Member: Philips.FT.TLD.36W.15 ---
## Object: source_spct [601 x 2]
## Wavelength range 300-900 nm, step 1 nm 
## Label: Fluorescent tube: Philips TLD 36W 15 ca. 1995 
## Measured on 0-08-23 10:16:11 UTC 
## Spectral data normalized to s.e.irrad = 1 at 660 nm (max in 300-900 nm)
## Variables:
##  w.length: Wavelength [nm]
##  s.e.irrad: Spectral energy irradiance [normalized] 
## --
## # A tibble: 601 × 2
##    w.length s.e.irrad
##       <dbl>     <dbl>
##  1      300  0.000196
##  2      301  0.000959
##  3      302  0.000752
##  4      303  0.00110 
##  5      304  0.00126 
##  6      305  0.000885
##  7      306  0.000521
##  8      307  0.00153 
##  9      308  0.000167
## 10      309  0.000493
## # ℹ 591 more rows
## --- Member: Philips.FT.TLD.36W.83 ---
## Object: source_spct [601 x 2]
## Wavelength range 300-900 nm, step 1 nm 
## Label: Fluorescent tube: Philips TLD 36W 83 ca. 1995 
## Measured on 0-08-23 11:51:11 UTC 
## Spectral data normalized to s.e.irrad = 1 at 613 nm (max in 300-900 nm)
## Variables:
##  w.length: Wavelength [nm]
##  s.e.irrad: Spectral energy irradiance [normalized] 
## --
## # A tibble: 601 × 2
##    w.length s.e.irrad
##       <dbl>     <dbl>
##  1      300  0.000381
##  2      301  0.000497
##  3      302  0.000426
##  4      303  0.000476
##  5      304  0.000467
##  6      305  0.000343
##  7      306  0.000449
##  8      307  0.000606
##  9      308  0.00130 
## 10      309  0.00229 
## # ℹ 591 more rows
## --- Member: Philips.FT.TLD.36W.89 ---
## Object: source_spct [601 x 2]
## Wavelength range 300-900 nm, step 1 nm 
## Label: Fluorescent tube: Philips TLD 36W 89 ca. 1995 
## Measured on 0-08-23 15:19:11 UTC 
## Spectral data normalized to s.e.irrad = 1 at 613 nm (max in 300-900 nm)
## Variables:
##  w.length: Wavelength [nm]
##  s.e.irrad: Spectral energy irradiance [normalized] 
## --
## # A tibble: 601 × 2
##    w.length s.e.irrad
##       <dbl>     <dbl>
##  1      300  0.000477
##  2      301  0.000560
##  3      302  0.00100 
##  4      303  0.000626
##  5      304  0.000965
##  6      305  0.000860
##  7      306  0.000760
##  8      307  0.000746
##  9      308  0.00114 
## 10      309  0.00176 
## # ℹ 591 more rows
## --- Member: Philips.FT.TLL.36W.950 ---
## Object: source_spct [601 x 2]
## Wavelength range 300-900 nm, step 1 nm 
## Label: Fluorescent tube: Philips TLL 36W 950 ca. 1995 
## Measured on 0-08-23 08:44:11 UTC 
## Spectral data normalized to s.e.irrad = 1 at 613 nm (max in 300-900 nm)
## Variables:
##  w.length: Wavelength [nm]
##  s.e.irrad: Spectral energy irradiance [normalized] 
## --
## # A tibble: 601 × 2
##    w.length s.e.irrad
##       <dbl>     <dbl>
##  1      300 0.0000697
##  2      301 0.0000682
##  3      302 0.0000382
##  4      303 0.0000561
##  5      304 0.0000733
##  6      305 0.0000359
##  7      306 0.0000353
##  8      307 0.0000346
##  9      308 0.000136 
## 10      309 0.000250 
## # ℹ 591 more rows
## 
## --- END ---
…
normalize(lamps.mspct$Philips.FT.TLD.36W.15)

## Object: source_spct [601 x 2]
## Wavelength range 300-900 nm, step 1 nm 
## Label: Fluorescent tube: Philips TLD 36W 15 ca. 1995 
## Measured on 0-08-23 10:16:11 UTC 
## Spectral data normalized to s.e.irrad = 1 at 660 nm (max in 300-900 nm)
## Variables:
##  w.length: Wavelength [nm]
##  s.e.irrad: Spectral energy irradiance [normalized] 
## --
## # A tibble: 601 × 2
##    w.length s.e.irrad
##       <dbl>     <dbl>
##  1      300  0.000196
##  2      301  0.000959
##  3      302  0.000752
##  4      303  0.00110 
##  5      304  0.00126 
##  6      305  0.000885
##  7      306  0.000521
##  8      307  0.00153 
##  9      308  0.000167
## 10      309  0.000493
## # ℹ 591 more rows
…
