Spectral data for Lamps of different types — incandescent_lamps â€¢ photobiologyLamps
…
# select lamps emitting in the amber, yellow, orange region
lamps.mspct[sodium_lamps]
#> Object: source_mspct [1 x 1]
#> --- Member: osram.super.vialox ---
#> Object: source_spct [301 x 2]
#> Wavelength range 300 to 900 nm, step 2 nm 
#> Label: File: Osram.Super.Vialox.PRN 
#> Measured on 0000-10-17 13:54:00 UTC 
#> Time unit 1s
#> Spectral data normalized to 1 at 820 nm 
#> 
#> # A tibble: 301 x 2
#>    w.length s.e.irrad
#>       <dbl>     <dbl>
#>  1     300.  0.000235
#>  2     302.  0.000196
#>  3     304.  0.000237
#>  4     306.  0.000378
#>  5     308.  0.000553
#>  6     310.  0.000902
#>  7     312.  0.00139 
#>  8     314.  0.00198 
#>  9     316.  0.00270 
#> 10     318.  0.00348 
#> # ... with 291 more rows
…
