photobiologyLamps: Spectral Irradiance Data for Lamps — photobiologyLamps-package â€¢ photobiologyLamps
…
library(photobiologyLamps)
library(photobiologyWavebands)
#> For news about 'photobiologyWavebands', please, see http://www.r4photobiology.info/
#> For on-line documentation see http://docs.r4photobiology.info/photobiologyWavebands/
# extract one spectrum
lamps.mspct$incandescent.60w
#> Object: source_spct [601 x 2]
#> Wavelength range 300 to 900 nm, step 1 nm 
#> Label: File: Incandescent.60W.PRN 
#> Measured on 0000-08-18 15:27:00 UTC 
#> Time unit 1s
#> Spectral data normalized to 1 at 900 nm 
#> 
#> # A tibble: 601 x 2
#>    w.length s.e.irrad
#>       <dbl>     <dbl>
#>  1      300  0.000665
#>  2      301  0.000325
#>  3      302  0.000956
#>  4      303  0.000702
#>  5      304  0.000306
#>  6      305  0.000825
#>  7      306  0.00103 
#>  8      307  0.000361
#>  9      308  0.000497
#> 10      309  0.000627
#> # ... with 591 more rows
lamps.mspct[["incandescent.60w"]]
#> Object: source_spct [601 x 2]
#> Wavelength range 300 to 900 nm, step 1 nm 
#> Label: File: Incandescent.60W.PRN 
#> Measured on 0000-08-18 15:27:00 UTC 
#> Time unit 1s
#> Spectral data normalized to 1 at 900 nm 
#> 
#> # A tibble: 601 x 2
#>    w.length s.e.irrad
#>       <dbl>     <dbl>
#>  1      300  0.000665
#>  2      301  0.000325
#>  3      302  0.000956
#>  4      303  0.000702
#>  5      304  0.000306
#>  6      305  0.000825
#>  7      306  0.00103 
#>  8      307  0.000361
#>  9      308  0.000497
#> 10      309  0.000627
#> # ... with 591 more rows
…
q_ratio(lamps.mspct$incandescent.60w, Blue(), Green())
#>  Blue.ISO: Green.ISO(q:q) 
#>                 0.2734537 
#> attr(,"radiation.unit")
#> [1] "q:q ratio"
# extracting all the spectra measured with a given instrument
lamps.mspct[bentham_lamps]
#> Object: source_mspct [2 x 1]
#> --- Member: philips.tl01 ---
#> Object: source_spct [301 x 2]
#> Wavelength range 250 to 400 nm, step 0.5 nm 
#> Time unit 1s
#> Spectral data normalized to 1 at 311.5 nm 
#> 
#> # A tibble: 301 x 2
#>    w.length    s.e.irrad
#>       <dbl>        <dbl>
#>  1      250 0.000000249 
#>  2      250 0.0000000624
#>  3      251 0.0000000340
#>  4      252 0.0000000166
#>  5      252 0.0000000261
#>  6      252 0.000000468 
#>  7      253 0.0000280   
#>  8      254 0.0000979   
#>  9      254 0.0000102   
#> 10      254 0.000000201 
#> # ... with 291 more rows
#> --- Member: philips.tl12 ---
#> Object: source_spct [301 x 2]
#> Wavelength range 250 to 400 nm, step 0.5 nm 
#> Time unit 1s
#> Spectral data normalized to 1 at 313 nm 
#> 
#> # A tibble: 301 x 2
#>    w.length   s.e.irrad
#>       <dbl>       <dbl>
#>  1      250 0.000000683
#>  2      250 0          
#>  3      251 0          
#>  4      252 0          
#>  5      252 0.000000365
#>  6      252 0.00000135 
#>  7      253 0.0000379  
#>  8      254 0.000153   
#>  9      254 0.0000109  
#> 10      254 0.000000978
#> # ... with 291 more rows
…
