Spectral irradiance of UVB lamps at different temperatures. — qp_uvb313_temp.spct â€¢ photobiologyLamps
…
    Aphalo, P J, R Tegelberg, and R Julkunen-Tiitto. 1999. The
Modulated UV-B Irradiation System at the University of Joensuu.” Biotronics
28: 109–120.
http://ci.nii.ac.jp/naid/110006175827/en.

    Examples

qp_uvb313_temp.mspct[["plus20C"]]
#> Object: source_spct [111 x 3]
#> containing 7 spectra in long form
#> Wavelength range 290 to 400 nm, step 1 nm 
#> Time unit 1s
#> 
#> # A tibble: 111 x 3
#>    temperature w.length s.e.irrad
#>  *       <dbl>    <int>     <dbl>
#>  1         20.      290 0.       
#>  2         20.      291 0.       
#>  3         20.      292 0.0000496
#>  4         20.      293 0.000379 
#>  5         20.      294 0.00126  
#>  6         20.      295 0.00321  
#>  7         20.      296 0.00673  
#>  8         20.      297 0.0182   
#>  9         20.      298 0.0226   
#> 10         20.      299 0.0289   
#> # ... with 101 more rows
…
