Spectral data for Lamps of different colors — uv_lamps â€¢ photobiologyLamps
…
# select lamps emitting in the amber, yellow, orange region
lamps.mspct[red_lamps]
#> Object: source_mspct [1 x 1]
#> --- Member: philips.tld36w.15 ---
#> Object: source_spct [601 x 2]
#> Wavelength range 300 to 900 nm, step 1 nm 
#> Label: File: Philips.TLD36W.15.PRN 
#> Measured on 0000-08-23 11:56:00 UTC 
#> Time unit 1s
#> Spectral data normalized to 1 at 660 nm 
#> 
#> # A tibble: 601 x 2
#>    w.length s.e.irrad
#>       <dbl>     <dbl>
#>  1      300  0.000196
#>  2      301  0.000959
#>  3      302  0.000752
#>  4      303  0.00110 
#>  5      304  0.00126 
#>  6      305  0.000885
#>  7      306  0.000521
#>  8      307  0.00153 
#>  9      308  0.000167
#> 10      309  0.000493
#> # ... with 591 more rows
…
